type;matricule;nom;prenom;datenais;lieunais;tel;email;fonction;cni;nationalite;lieuH;situation;nbchild;login;pass;statut;sexe;societe;adresse;telburo;doublant;affecter;classe;codeEtab;session;addid;suivant
parent;;BAMBA;CHEICK;;;49393959;;ENTREPRENEUR;;;COCODY ANGRE ARCADE 1;;;bamba.cheick;IBSA@2020;1;M;;;;;;;5;2020-2021;;
parent;;DOUMBIA;MADEKOURA;;;08 14 66 24;dmadek@hotmail.com;JURISTE;;;COCODY ANGRE ARCADE 1;;;dmadek;IBSA@2020;1;F;;;22504664;;;;5;2020-2021;;
eleve;0211BL272;BAMBA;LEYLA AMITA;26/02/2011;USA;;;ELEVE;;IVOIRIENNE;COCODY ANGRE ARCADE 1;;;;;1;F;;;;;;G4;5;2020-2021;;0
parent;;OUEDRAOGO;JEAN PASCAL;;;07 08 94 96;;ENTREPRENEUR;;;COCODY ANGRE STAR 5;;;ouedraogo.jean;IBSA@2020;1;M;SODISTRA;;;;;;5;2020-2021;;
parent;;FOFANA;FATOUMATA;;;78557538;fatoumata.hec@gmail.com;GESTIONNAIRE DE PROJET;;;COCODY ANGRE STAR 5;;;fatoumata.hec;IBSA@2020;1;F;SE-CNZLECAF;;;;;;5;2020-2021;;
eleve;0211OK273;OUEDRAOGO;KEIRA HEIDI DIAKA;21/02/2011;VANCOUVER;;;ELEVE;;CANNADIENNE;COCODY ANGRE STAR 5;;;;;1;F;;;;;;G4;5;2020-2021;;0
parent;;DANUMAH;JEAN LUDOVIC;;;07 26 50 50;jeandanumah@gmail.com;CHEF D'ENTREPRISE;;;COCODY ANGRE SOLEIL 3;;;jeandanumah;IBSA@2020;1;M;;;;;;;5;2020-2021;;
parent;;ASSOFI;JEANNINE;;;;;STYLISTE MODELISTE;;;COCODY ANGRE SOLEIL 3;;;assofijeannine;IBSA@2020;1;F;SE-CNZLECAF;;;;;;5;2020-2021;;
eleve;0713DH274;DANUMAH;HAZELL FAITHEN GRACE;13/07/2011;LONDRES;;;ELEVE;;FRANCAISE;COCODY ANGRE SOLEIL 3;;;;;1;F;;;;;;G4;5;2020-2021;;0
